playsound minecraft:block.chain.step block @a -2167 65 -970 2

fill -2169 71 -969 -2169 71 -973 minecraft:iron_bars
fill -2169 78 -973 -2169 78 -972 minecraft:chain
fill -2169 78 -970 -2169 78 -969 minecraft:chain
setblock -2169 78 -971 air

schedule function egypt:left_gate/close/1 0.3s