playsound minecraft:block.chain.step block @a -2167 65 -970 2

fill -2169 70 -969 -2169 70 -973 minecraft:iron_bars
fill -2169 77 -973 -2169 77 -972 minecraft:chain
fill -2169 77 -970 -2169 77 -969 minecraft:chain
setblock -2169 77 -971 air

schedule function egypt:left_gate/close/2 0.3s
