playsound minecraft:block.chain.step block @a -2167 65 -970 2

fill -2169 69 -969 -2169 69 -973 minecraft:iron_bars
fill -2169 76 -973 -2169 76 -972 minecraft:chain
fill -2169 76 -970 -2169 76 -969 minecraft:chain
setblock -2169 76 -971 air

schedule function egypt:left_gate/close/3 0.3s
