playsound minecraft:block.chain.step block @a -2167 65 -970 2

fill -2169 68 -969 -2169 68 -973 minecraft:iron_bars
fill -2169 75 -973 -2169 75 -972 minecraft:chain
fill -2169 75 -970 -2169 75 -969 minecraft:chain
setblock -2169 75 -971 air

schedule function egypt:left_gate/close/4 0.3s
