playsound minecraft:block.chain.step block @a -2167 65 -970 2

fill -2169 67 -969 -2169 67 -973 minecraft:iron_bars
fill -2169 74 -973 -2169 74 -972 minecraft:chain
fill -2169 74 -970 -2169 74 -969 minecraft:chain
setblock -2169 74 -971 air

schedule function egypt:left_gate/close/5 0.3s