playsound minecraft:block.chain.step block @a -2167 65 -970 2

fill -2169 66 -969 -2169 66 -973 minecraft:iron_bars
fill -2169 73 -973 -2169 73 -972 minecraft:chain
fill -2169 73 -970 -2169 73 -969 minecraft:chain
setblock -2169 73 -971 air

schedule function egypt:left_gate/close/6 0.3s