playsound minecraft:block.chain.step block @a -2167 65 -970 2

fill -2169 65 -969 -2169 65 -973 minecraft:iron_bars
fill -2169 72 -973 -2169 72 -972 minecraft:chain
fill -2169 72 -970 -2169 72 -969 minecraft:chain
setblock -2169 72 -971 air