playsound minecraft:block.chain.step block @a -1967 59 -858 2

# bottom
fill -1967 60 -855 -1967 60 -863 minecraft:air
fill -1967 61 -864 -1967 61 -865 minecraft:air
fill -1967 61 -853 -1967 61 -854 minecraft:air
setblock -1967 62 -866 minecraft:air
setblock -1967 62 -852 minecraft:air
setblock -1967 63 -867 minecraft:air
setblock -1967 63 -851 minecraft:air

# top
fill -1967 72 -862 -1967 72 -855 minecraft:iron_bars
fill -1967 71 -863 -1967 71 -854 minecraft:iron_bars
fill -1967 70 -851 -1967 70 -867 minecraft:iron_bars

schedule function egypt:water_gate/open/1 0.3s