playsound minecraft:block.chain.step block @a -1967 59 -858 2

# bottom
fill -1967 61 -855 -1967 61 -863 minecraft:air
fill -1967 62 -864 -1967 62 -865 minecraft:air
fill -1967 62 -853 -1967 62 -854 minecraft:air
setblock -1967 63 -866 minecraft:air
setblock -1967 63 -852 minecraft:air
setblock -1967 64 -867 minecraft:air
setblock -1967 64 -851 minecraft:air

# top
fill -1967 73 -862 -1967 73 -855 minecraft:iron_bars
fill -1967 72 -863 -1967 72 -854 minecraft:iron_bars
fill -1967 71 -851 -1967 71 -867 minecraft:iron_bars

schedule function egypt:water_gate/open/2 0.3s