playsound minecraft:block.chain.step block @a -1967 59 -858 2

# bottom
fill -1967 62 -855 -1967 62 -863 minecraft:air
fill -1967 63 -864 -1967 63 -865 minecraft:air
fill -1967 63 -853 -1967 63 -854 minecraft:air
setblock -1967 64 -866 minecraft:air
setblock -1967 64 -852 minecraft:air
setblock -1967 65 -867 minecraft:air
setblock -1967 65 -851 minecraft:air
fill -1967 62 -866 -1967 62 -852 minecraft:water

# top
fill -1967 74 -862 -1967 74 -855 minecraft:iron_bars
fill -1967 73 -863 -1967 73 -854 minecraft:iron_bars
fill -1967 72 -851 -1967 72 -867 minecraft:iron_bars


schedule function egypt:water_gate/open/3 0.3s