playsound minecraft:block.chain.step block @a -1967 59 -858 2

# bottom
fill -1967 63 -855 -1967 63 -863 minecraft:air
fill -1967 64 -864 -1967 64 -865 minecraft:air
fill -1967 64 -853 -1967 64 -854 minecraft:air
setblock -1967 65 -866 minecraft:air
setblock -1967 65 -852 minecraft:air
setblock -1967 66 -867 minecraft:air
setblock -1967 66 -851 minecraft:air

# top
fill -1967 75 -862 -1967 75 -855 minecraft:iron_bars
fill -1967 74 -863 -1967 74 -854 minecraft:iron_bars
fill -1967 73 -851 -1967 73 -867 minecraft:iron_bars

schedule function egypt:water_gate/open/4 0.3s