playsound minecraft:block.chain.step block @a -1967 59 -858 2

# bottom
fill -1967 64 -855 -1967 64 -863 minecraft:air
fill -1967 65 -864 -1967 65 -865 minecraft:air
fill -1967 65 -853 -1967 65 -854 minecraft:air
setblock -1967 66 -866 minecraft:air
setblock -1967 66 -852 minecraft:air
setblock -1967 67 -867 minecraft:air
setblock -1967 67 -851 minecraft:air

# top
fill -1967 76 -862 -1967 76 -855 minecraft:iron_bars
fill -1967 75 -863 -1967 75 -854 minecraft:iron_bars
fill -1967 74 -851 -1967 74 -867 minecraft:iron_bars

schedule function egypt:water_gate/open/5 0.3s