playsound minecraft:block.chain.step block @a -1967 59 -858 2

# bottom
fill -1967 65 -855 -1967 65 -863 minecraft:air
fill -1967 66 -864 -1967 66 -865 minecraft:air
fill -1967 66 -853 -1967 66 -854 minecraft:air
setblock -1967 67 -866 minecraft:air
setblock -1967 67 -852 minecraft:air
setblock -1967 68 -867 minecraft:air
setblock -1967 68 -851 minecraft:air

# top
fill -1967 77 -862 -1967 77 -855 minecraft:iron_bars
fill -1967 76 -863 -1967 76 -854 minecraft:iron_bars
fill -1967 75 -851 -1967 75 -867 minecraft:iron_bars
