playsound minecraft:block.chain.step block @a -2167 65 -970 2

fill -2169 65 -969 -2169 65 -973 air
fill -2169 72 -969 -2169 72 -973 minecraft:iron_bars

schedule function egypt:left_gate/open/1 0.3s
