playsound minecraft:block.chain.step block @a -2167 65 -970 2

fill -2169 67 -969 -2169 67 -973 air
fill -2169 74 -969 -2169 74 -973 minecraft:iron_bars

schedule function egypt:left_gate/open/3 0.3s
