playsound minecraft:block.chain.step block @a -2167 65 -970 2

fill -2169 68 -969 -2169 68 -973 air
fill -2169 75 -969 -2169 75 -973 minecraft:iron_bars

schedule function egypt:left_gate/open/4 0.3s
