playsound minecraft:block.chain.step block @a -2167 65 -970 2

fill -2169 69 -969 -2169 69 -973 air
fill -2169 76 -969 -2169 76 -973 minecraft:iron_bars

schedule function egypt:left_gate/open/5 0.3s
