playsound minecraft:block.chain.step block @a -2167 65 -970 2

fill -2169 70 -969 -2169 70 -973 air
fill -2169 77 -969 -2169 77 -973 minecraft:iron_bars

schedule function egypt:left_gate/open/6 0.3s
