playsound minecraft:block.chain.step block @a -1967 59 -858 2
# bottom
fill -1967 62 -855 -1967 62 -863 minecraft:iron_bars
fill -1967 63 -865 -1967 63 -853 minecraft:iron_bars
fill -1967 64 -866 -1967 64 -852 minecraft:iron_bars
fill -1967 65 -867 -1967 65 -851 minecraft:iron_bars

# top
fill -1967 72 -851 -1967 72 -853 air
fill -1967 72 -864 -1967 72 -867 air
setblock -1967 73 -863 air
setblock -1967 73 -854 air
fill -1967 74 -855 -1967 74 -862 air
setblock -1967 74 -861 minecraft:chain
setblock -1967 74 -856 minecraft:chain

schedule function egypt:water_gate/close/4 0.3s