playsound minecraft:block.chain.step block @a -1967 59 -858 2
# bottom
fill -1967 61 -855 -1967 61 -863 minecraft:iron_bars
fill -1967 62 -865 -1967 62 -853 minecraft:iron_bars
fill -1967 63 -866 -1967 63 -852 minecraft:iron_bars
fill -1967 64 -867 -1967 64 -851 minecraft:iron_bars

# top
fill -1967 71 -851 -1967 71 -853 air
fill -1967 71 -864 -1967 71 -867 air
setblock -1967 72 -863 air
setblock -1967 72 -854 air
fill -1967 73 -855 -1967 73 -862 air
setblock -1967 73 -861 minecraft:chain
setblock -1967 73 -856 minecraft:chain

schedule function egypt:water_gate/close/5 0.3s