playsound minecraft:block.chain.step block @a -1967 59 -858 2
# bottom
fill -1967 60 -855 -1967 60 -863 minecraft:iron_bars
fill -1967 61 -865 -1967 61 -853 minecraft:iron_bars
fill -1967 62 -866 -1967 62 -852 minecraft:iron_bars
fill -1967 63 -867 -1967 63 -851 minecraft:iron_bars

# top
fill -1967 70 -851 -1967 70 -853 air
fill -1967 70 -864 -1967 70 -867 air
setblock -1967 71 -863 air
setblock -1967 71 -854 air
fill -1967 72 -855 -1967 72 -862 air
setblock -1967 72 -861 minecraft:chain
setblock -1967 72 -856 minecraft:chain